<?xml version="1.0" encoding="utf-8"?>
<!-- Generator: Adobe Illustrator 21.0.0, SVG Export Plug-In . SVG Version: 6.00 Build 0)  -->
<svg version="1.1" id="Layer_1" xmlns="http://www.w3.org/2000/svg" xmlns:xlink="http://www.w3.org/1999/xlink" x="0px" y="0px"
	 viewBox="0 0 377.3 130.7" style="enable-background:new 0 0 377.3 130.7;" xml:space="preserve">
<style type="text/css">
	.st0{clip-path:url(#SVGID_2_);fill:#58595B;}
	.st1{fill:#58595B;}
	.st2{clip-path:url(#SVGID_4_);fill:#58595B;}
	.st3{clip-path:url(#SVGID_6_);fill:#58595B;}
	.st4{clip-path:url(#SVGID_8_);fill:#58595B;}
</style>
<g>
	<defs>
		<rect id="SVGID_1_" x="1.7" y="1.5" width="373.8" height="127.8"/>
	</defs>
	<clipPath id="SVGID_2_">
		<use xlink:href="#SVGID_1_"  style="overflow:visible;"/>
	</clipPath>
	<path class="st0" d="M309.4,30.3c0-1.6-1-2.9-2.9-2.9h-1.7v5.9h1.7C308.3,33.2,309.4,31.9,309.4,30.3 M303.3,34.5V26h3.2
		c2.6,0,4.4,1.8,4.4,4.3c0,2.5-1.8,4.2-4.4,4.2H303.3z"/>
</g>
<polygon class="st1" points="318,34.5 318,26 323.9,26 323.9,27.3 319.5,27.3 319.5,29.6 323.8,29.6 323.8,30.9 319.5,30.9 
	319.5,33.2 323.9,33.2 323.9,34.5 "/>
<g>
	<defs>
		<rect id="SVGID_3_" x="1.7" y="1.5" width="373.8" height="127.8"/>
	</defs>
	<clipPath id="SVGID_4_">
		<use xlink:href="#SVGID_3_"  style="overflow:visible;"/>
	</clipPath>
	<path class="st2" d="M330.5,33.3l0.8-1.1c0.6,0.6,1.5,1.2,2.7,1.2c1.2,0,1.7-0.6,1.7-1.2c0-1.8-5-0.7-5-3.8c0-1.4,1.2-2.5,3.1-2.5
		c1.3,0,2.4,0.4,3.2,1.2l-0.9,1.1c-0.7-0.7-1.6-1-2.5-1c-0.9,0-1.4,0.4-1.4,1.1c0,1.6,4.9,0.6,4.9,3.8c0,1.4-1,2.6-3.3,2.6
		C332.4,34.7,331.3,34.1,330.5,33.3"/>
</g>
<rect x="344.3" y="26" class="st1" width="1.5" height="8.5"/>
<g>
	<defs>
		<rect id="SVGID_5_" x="1.7" y="1.5" width="373.8" height="127.8"/>
	</defs>
	<clipPath id="SVGID_6_">
		<use xlink:href="#SVGID_5_"  style="overflow:visible;"/>
	</clipPath>
	<path class="st3" d="M352.9,30.3c0-2.7,2-4.4,4.5-4.4c1.7,0,2.7,0.8,3.4,1.8l-1.2,0.7c-0.4-0.6-1.2-1.1-2.2-1.1
		c-1.7,0-2.9,1.3-2.9,3.1c0,1.8,1.2,3.1,2.9,3.1c0.9,0,1.6-0.4,2-0.8v-1.3h-2.5V30h4v3.2c-0.8,0.9-2,1.5-3.5,1.5
		C354.9,34.7,352.9,33,352.9,30.3"/>
</g>
<polygon class="st1" points="374,26 374,31.9 369.7,26 368.2,26 368.2,34.5 369.6,34.5 369.6,28.5 374.1,34.5 375.5,34.5 375.5,26 
	"/>
<g>
	<defs>
		<rect id="SVGID_7_" x="1.7" y="1.5" width="373.8" height="127.8"/>
	</defs>
	<clipPath id="SVGID_8_">
		<use xlink:href="#SVGID_7_"  style="overflow:visible;"/>
	</clipPath>
	<path class="st4" d="M152.5,23.3l0-0.1c0,0,0-0.8,0-1.7v-17l0.3,0c0.8,0,1.6,0,2.3,0h0c3.2,0,6.2,0,9.2,0.6
		c3.5,0.8,5.4,2.8,6.3,4.4c1.3,2.2,1.8,5,1.1,7.5c-0.7,2.6-2.5,4.4-5.6,5.6c-2.6,1-5.3,1.1-8,1.1c-1.2,0-5.4-0.4-5.6-0.4L152.5,23.3
		z M162.6,37.8l4.7,6.4c0.6,0.8,1.1,1.5,1.7,2.3l0.5,0.7c1.8,2.4,3.7,5,5.5,7.5l0.1,0.1c0.9,1.3,2,2.8,0.9,4.6h7.6
		c-0.3-0.3-0.6-0.6-0.8-0.9c-0.9-1-1.9-1.9-2.7-3c-5.2-6.9-10.4-13.9-15.4-20.7l-4.7-6.4c-0.5-0.6-0.9-1.3-1.4-1.9l-0.9-1.3l0.3,0
		c0,0,4.2,0,6.1-0.3c2.1-0.3,5.9-1.1,8.5-3c2.5-1.8,3.8-4.8,3.6-8.2c-0.2-3.4-2-6.3-4.6-7.7c-2.8-1.5-5.6-2.3-8.4-2.4
		c-3.6-0.1-7.3-0.1-10.8-0.1H152c-1.4,0-2.9,0-4.3,0c-0.1,0-0.2,0-0.3,0c1.4,1.4,1.6,3.1,1.6,5l0,2.9c0,14.1,0,28.7,0,43.2
		c0,1.7-0.2,3.4-1.5,4.9h6.6c-1.3-1.3-1.6-2.8-1.6-4.7c0-5.9,0-11.8,0-17.7v-2.8c0-3.1,0-6.7,0-9.5v-0.1l0.1,0
		C152.7,24.5,152.7,24.4,162.6,37.8"/>
	<path class="st4" d="M345,93.7c3.3,4.1,6.6,8.3,9.9,12.4c3.3,4.2,6.6,8.3,10,12.5l8.5,10.7V77.8c0-1.9,0-3.8,1.5-5.4h-4.5
		c1.5,1.6,1.5,3.4,1.5,5.2c0,10.9,0,21.8,0,32.6l0,9.6c0,0.2,0,0.4,0,0.7l0,0.1c0,0.1,0,0.2,0,0.4l0,0.7l-0.4-0.5
		c-0.1-0.1-0.2-0.2-0.3-0.3c-0.2-0.2-0.3-0.3-0.4-0.5l-7.4-9.4c-14.9-18.8-30.3-37.9-31.2-38.7c-0.4,0-3.7,0-4.8-0.1
		c0.4,0.5,0.9,1,1.3,1.5l0.2,0.2c1.5,1.6,3,3.3,4.5,5c0.2,0.2,0.7,0.8,0.7,0.8l0,0l0,0c0,0,0,0.8,0,1.4c0,4,0,8,0,12v1
		c0,3.3,0,6.6,0,9.9c0,7.6,0,14.4-0.1,20.7c0,1.4-0.5,2.6-1.4,3.4h4.6c-1.7-1.7-1.6-3.7-1.6-5.7c0-0.2,0-0.4,0-0.6
		c0-10.1,0-20.3,0-30.4l-0.1-10.2l7.9,10.1L345,93.7z"/>
	<path class="st4" d="M253.1,24.8c3.3,4.1,6.6,8.3,9.9,12.4c3.3,4.2,6.6,8.3,10,12.5l8.5,10.7V8.8c0-1.9,0-3.8,1.5-5.4h-4.5
		c1.5,1.6,1.5,3.4,1.5,5.2c0,10.9,0,21.8,0,32.6l0,9.6c0,0.2,0,0.4,0,0.7l0,0.1c0,0.1,0,0.2,0,0.4l0,0.7l-0.4-0.5
		c-0.1-0.1-0.2-0.2-0.3-0.3c-0.2-0.2-0.3-0.3-0.4-0.5l-7.4-9.4C256.3,23.3,240.9,4.2,240,3.4c-0.4,0-3.7,0-4.8-0.1
		c0.4,0.5,0.9,1,1.3,1.5l0.2,0.2c1.5,1.6,3,3.3,4.5,5c0.2,0.2,0.7,0.8,0.7,0.8l0,0l0,0c0,0,0,0.8,0,1.4c0,4,0,8,0,12v1
		c0,3.3,0,6.6,0,9.9c0,7.6,0,14.4-0.1,20.7c0,1.4-0.5,2.6-1.4,3.4h4.6c-1.7-1.7-1.6-3.7-1.6-5.7c0-0.2,0-0.4,0-0.6
		c0-10.1,0-20.3,0-30.4l-0.1-10.2l7.9,10.1L253.1,24.8z"/>
	<path class="st4" d="M111.4,41.2l9.7-31.9l0.4-1.5l0.1,0.5l9.1,33.2h-19.4L111.4,41.2z M111.7,43c6.1,0,12.3,0,18.3,0
		c0.4,0,1.1,0.4,1.2,0.8c1.1,4.1,2.1,7.7,3,11.1c0.5,1.8,0.1,3.3-1,4.4h8.2c-2.6-2-3.5-4.8-4.3-7.8c-1.5-5.4-3-10.8-4.6-16.2
		l-0.5-1.7c-2.2-7.9-4.4-15.8-6.7-23.8l-1.8-6.3c-0.6,0-3.3-0.1-4.2-0.1c0.1,0.1,0.2,0.2,0.2,0.3c0.9,1.3,1.1,2.5,0.6,3.9
		c-0.8,2.1-1.4,4.3-2,6.4l-0.1,0.3c-0.2,0.8-0.5,1.6-0.7,2.3c-3.6,11.6-7.2,23.2-10.7,34.8c-1.1,3.5-2.6,6.1-4.7,7.9h6.8
		c-1.8-1.7-1.5-3.7-1.2-5.2c0.7-3,1.6-5.9,2.5-8.8l0.5-1.7C110.7,43.3,111.3,43,111.7,43"/>
	<path class="st4" d="M62,28.9c-0.2,0-0.4,0-0.7,0l-0.1,0c-0.1,0-0.3,0-0.4,0l-0.3,0l0-6.8c0-4.1,0-8.3,0-12.4c0-0.2,0-0.4,0-0.6
		c0-1.9,0-3.8,1.5-5.4h-6.5c1.5,1.5,1.5,3.4,1.5,5.2l0,10.4v1.7c0,10.9,0,22.2,0,33.3c0,1.7-0.1,3.6-1.5,5.1H62
		c-1.3-1.6-1.3-3.5-1.3-5.4c0-5.4,0-10.9,0-16.3l0-7.4h30l0,8.3c0,4.6,0,9.4,0,14.1c0,0.3,0,0.5,0,0.8l0,0.1c0,2,0.1,4-1.5,5.7h6.6
		c-1.6-1.6-1.6-3.6-1.6-5.3l0-44.9c0-1.9,0-3.8,1.5-5.5h-6.5c1.5,1.6,1.5,3.5,1.5,5.2l0,4.2c0,4.2,0,9.4,0,14.4c0,0.4,0,0.9-0.3,1.1
		c-0.2,0.2-0.5,0.3-1.1,0.3c-6.2,0-12.5,0-18.6,0H62z"/>
	<path class="st4" d="M45,6.6L51.2,2l-0.3-0.5c-0.5,0.1-1.1,0.3-1.6,0.4c-1.3,0.3-2.5,0.6-3.8,0.9C42,3.4,16.7,3.4,16.3,3.4
		c0,0-5.8,0.1-8.2-1.7L1.7,6.3C1.8,6.5,1.9,6.7,2,6.7c0.2,0.1,0.5,0.1,0.9-0.1c3.4-1.1,6.5-1.7,9.7-1.8c1.2,0,2.3,0,3.5,0l0.2,0
		c0.6,0,8.5,0,8.5,0v10.8c0,13,0,25.9,0,38.9c0,1.6-0.2,3.3-1.5,4.7h6.6c-1.6-1.6-1.6-3.6-1.6-5.5v-0.1c0-10.4,0-20.7,0-31.1l0-17.8
		c0,0,7.9-0.1,8.9-0.1l0.4,0C40.4,4.6,42.9,4.5,45,6.6"/>
	<path class="st4" d="M115.2,126.8l0-0.1L115.2,126.8c-1.7,0-3.4,0-5.1,0h0c-0.4,0-0.7-0.1-0.9-0.3c-0.2-0.2-0.3-0.5-0.3-0.9
		c0-13.4,0-26.9,0-40.3l0-11c0-0.2,0-0.3,0-0.5c0-0.1,0-0.2,0-0.3l0-0.2l2,0c6.4-0.1,12.4-0.1,18.3,2.1
		c11.6,4.3,18.3,14.6,17.6,27.1c-0.3,5.3-1.4,9.5-3.5,13c-2.9,5-7.3,8.3-13.4,10c-3,0.9-6.2,1.3-9.4,1.4
		C118.8,126.8,117,126.8,115.2,126.8 M146.2,116.5c2.6-3.7,4.1-8.2,4.6-13.6c0.7-7.8-1.3-14.7-6.1-20.2c-5.4-6.4-12.9-9.8-22.2-10.4
		c-3.4-0.2-6.9-0.2-10-0.1c-1.4,0-2.9,0-4.3,0c-0.9,0-1.7,0-2.6,0l-1.6,0c1.3,1.6,1.3,3.4,1.3,5.2l0,0.3v11.7c0,11.1,0,22.3,0,33.4
		c0,1.9,0,3.9-1.6,5.4h0.4c1.6,0,3.1,0,4.7,0l0.2,0c3.6,0,7.4,0,11.1-0.1c3.4-0.1,6.5-0.4,9.4-1C136.7,125.6,142.4,122,146.2,116.5"
		/>
	<path class="st4" d="M201.6,92l0-0.1c0,0,0-0.8,0-1.7v-17l0.3,0c0.8,0,1.6,0,2.3,0h0c3.2,0,6.2,0,9.2,0.6c3.5,0.8,5.4,2.8,6.3,4.4
		c1.3,2.2,1.8,5,1.1,7.5c-0.7,2.6-2.5,4.4-5.6,5.6c-2.6,1-5.3,1.1-8,1.1c-1.2,0-5.4-0.4-5.6-0.4L201.6,92z M211.6,106.5l4.7,6.4
		c0.6,0.8,1.1,1.5,1.7,2.3l0.5,0.7c1.8,2.4,3.7,5,5.5,7.5l0.1,0.1c0.9,1.3,2,2.8,0.9,4.6h7.6c-0.3-0.3-0.6-0.6-0.8-0.9
		c-0.9-0.9-1.9-1.9-2.7-3c-5.2-6.9-10.4-13.9-15.4-20.7l-4.7-6.4c-0.5-0.6-0.9-1.3-1.4-1.9l-0.9-1.3l0.3,0c0,0,4.2,0,6.1-0.3
		c2.1-0.3,5.9-1.1,8.5-3c2.5-1.8,3.8-4.8,3.6-8.2c-0.2-3.4-2-6.3-4.6-7.7c-2.8-1.5-5.6-2.3-8.4-2.4c-3.6-0.1-7.3-0.1-10.8-0.1h-0.1
		c-1.4,0-2.9,0-4.3,0c-0.1,0-0.2,0-0.3,0c1.4,1.4,1.6,3.1,1.6,5l0,2.9c0,14.1,0,28.7,0,43.2c0,1.7-0.2,3.4-1.5,4.9h6.6
		c-1.3-1.3-1.6-2.8-1.6-4.7c0-5.9,0-11.8,0-17.7v-2.8c0-3.2,0-6.8,0-9.5v-0.1l0.1,0c0,0,0,0,0,0C201.8,93.3,202.4,94,211.6,106.5"/>
	<path class="st4" d="M64.6,93.6c3.3,4.1,6.6,8.3,9.9,12.4c3.3,4.2,6.6,8.3,10,12.5l8.5,10.7V77.6c0-1.9,0-3.8,1.5-5.4h-4.5
		c1.5,1.6,1.5,3.4,1.5,5.2c0,10.9,0,21.8,0,32.6l0,9.6c0,0.2,0,0.4,0,0.7l0,0.1c0,0.1,0,0.2,0,0.4l0,0.7l-0.4-0.5
		c-0.1-0.1-0.2-0.2-0.3-0.3c-0.2-0.2-0.3-0.3-0.4-0.5l-7.4-9.4C67.8,92,52.4,72.9,51.5,72.2c-0.4,0-3.7,0-4.8-0.1
		c0.4,0.5,0.9,1,1.3,1.5l0.2,0.2c1.5,1.6,3,3.3,4.5,5c0.2,0.2,0.7,0.8,0.7,0.8l0,0l0,0c0,0,0,0.8,0,1.4c0,4,0,8,0,12v1
		c0,3.3,0,6.6,0,9.9c0,7.6,0,14.4-0.1,20.7c0,1.4-0.5,2.6-1.4,3.4h4.6c-1.7-1.7-1.6-3.7-1.6-5.7c0-0.2,0-0.4,0-0.6
		c0-10.1,0-20.3,0-30.4l-0.1-10.2l7.9,10.1L64.6,93.6z"/>
	<path class="st4" d="M15.8,109.9L25.5,78l0.4-1.5L26,77l9.1,33.2H15.7L15.8,109.9z M16.2,111.7c6.1,0,12.3,0,18.3,0
		c0.4,0,1.1,0.4,1.2,0.8c1.1,4.1,2.1,7.7,3,11.1c0.5,1.8,0.1,3.3-1,4.4h8.2c-2.5-2-3.5-4.8-4.3-7.8c-1.5-5.4-3-10.8-4.6-16.2
		l-0.5-1.7c-2.2-7.9-4.4-15.8-6.7-23.8L28,72.2c-0.6,0-3.3-0.1-4.2-0.1c0.1,0.1,0.2,0.2,0.2,0.3c0.9,1.3,1.1,2.5,0.6,3.9
		c-0.8,2.1-1.4,4.3-2,6.4L22.6,83c-0.2,0.8-0.5,1.6-0.7,2.3c-3.6,11.6-7.2,23.2-10.7,34.8c-1.1,3.5-2.6,6.1-4.7,7.9h6.8
		c-1.8-1.7-1.5-3.7-1.2-5.2c0.7-3,1.6-5.9,2.5-8.8l0.5-1.7C15.2,112,15.8,111.7,16.2,111.7"/>
	<path class="st4" d="M170.4,128.1L170.4,128.1c0.4,0,0.9,0,1.3,0l0.6,0c0.4,0,0.9,0,1.3,0c2.7,0,5.9,0.1,8.9,0.7l4.6-6.4
		c-0.1-0.2-0.3-0.3-0.4-0.3c-0.2,0-0.5,0.1-0.9,0.4c-2.1,1.6-4.6,2.8-7.7,3.5c-3.5,0.8-7.1,0.9-10.6,1c-0.8,0-1.6,0-2.5,0.1
		c-0.5,0-0.9-0.1-1.1-0.3c-0.3-0.3-0.3-0.7-0.3-1.1c0-7.7,0-15.3,0-23.7v-7.5c0-0.3,0-0.5,0-0.8c0-0.1,0-0.3,0-0.4l0-0.2l0.2,0
		c0.1,0,0.2,0,0.3,0l0.1,0c0.2,0,0.4,0,0.6,0h0c0.9,0,1.8,0,2.7,0l0.5,0c2.5,0,5.5,0,8.4,0.1c2.1,0.1,4.3,0.4,6.2,0.8
		c0.8,0.2,1.6,0.5,2.4,0.8c0.2,0.1,0.5,0.2,0.8,0.3v-4.6c-2.5,1-5.2,1.5-8.6,1.5c-3.4,0-6.9,0-9.7,0h-2.7c-0.2,0-0.4,0-0.6-0.1
		l-0.1,0c-0.1,0-0.1,0-0.2,0l-0.2,0l0-0.2c0-0.1,0-0.1,0-0.2c0-0.1-0.1-0.2-0.1-0.3l0-5.6c0-3.7,0-7.6,0-11.3c0-0.4,0.1-0.6,0.3-0.8
		c0.2-0.2,0.6-0.2,0.9-0.2c0.7,0,1.5,0,2.2,0c1.2,0,2.6,0,4,0.1c4.5,0.2,9.1,0.7,12.9,4.1l0.5-0.5l-0.9-1.2
		c-1.1-1.3-2.1-2.6-3.1-3.9c-0.1-0.1-0.4-0.2-0.7-0.2c-0.6,0-1.2,0.1-1.8,0.1c-0.9,0.1-1.8,0.2-2.6,0.2c-3.6,0.1-7.3,0.1-10.6,0.1
		c-1.3,0-2.6,0-3.9,0c-0.6,0-1.2,0-1.8,0l-0.3,0c1.3,1.6,1.3,3.5,1.3,5.3l0,9.8c0,6.9,0,13.9,0,20.8c0,4.4,0,8.8,0,13.1l0,3
		c0,1.6-0.5,2.9-1.6,3.9c0,0,0,0,0,0l3.4,0C164.7,128.1,167.5,128.1,170.4,128.1"/>
	<path class="st4" d="M241.4,127.5c1.1,0,2.1,0.2,3.1,0.5l0.4,0.1c0.5,0.1,0.9,0.2,1.3,0.3c3.6,1,7.1,0.9,10.4-0.5
		c4.7-1.9,8.2-6,9.3-10.9c1.1-4.8-0.1-9.6-3.4-13.2c-2.6-2.9-5.9-4.6-8.9-6c-2.5-1.2-5.4-2.6-8.2-4.1c-2.7-1.5-4.5-3.6-5.4-6.2
		c-1.3-3.9-0.7-7.7,1.6-10.7c2.4-3.1,6.5-4.8,10.7-4.5c3.3,0.2,6.3,1.6,9.9,4.3l0.7,0.5l0.4-0.5l-3.6-5.2c-1.2,0.6-2.5,0.4-3.7,0.2
		c-1.3-0.3-2.8-0.5-4.2-0.6c-5-0.1-8.9,1.5-11.8,5c-2.4,2.9-3.3,6.4-2.8,10.8c0.4,4.2,2.3,7.5,5.5,9.7c1.6,1.1,3.4,2,5,2.9
		c0.5,0.3,1,0.5,1.4,0.8c1,0.5,2,1,3,1.5c1.9,0.9,3.9,1.9,5.7,3.1c4.4,3,6.2,7.4,5.1,12.9c-1,5.1-4.3,8.4-9.4,9.7
		c-3.6,0.8-7.1,0.2-10.9-2c-2.3-1.3-4.2-3-6.1-5l-0.6,0.4l3.4,6.9C240.1,127.6,240.7,127.5,241.4,127.5"/>
	<path class="st4" d="M184.4,31.6c0,6.8,1.9,13.7,6.1,19.1c2.1,2.7,4.7,4.9,7.8,6.4c3,1.5,6.4,2.2,9.8,2.2c3.4,0,6.8-0.6,9.9-2.1
		c3.1-1.4,5.7-3.8,7.6-6.5c2-2.7,3.3-5.9,4-9.2c0.8-3.3,1-6.6,0.9-9.9c-0.3-6.6-2.3-13-6-18.3c-1.8-2.6-4.2-5-7-6.7
		c-2.8-1.8-6.1-2.7-9.5-2.8c-3.4-0.1-6.8,0.6-9.9,2.1c-3,1.5-5.7,3.8-7.7,6.4C186.2,17.8,184.4,24.8,184.4,31.6 M183.3,31.6
		c0-7,1.8-14.2,6.1-19.8c2.1-2.8,4.9-5.2,8.2-6.7c3.2-1.5,6.7-2.2,10.3-2.3c3.5-0.2,7.2,0.5,10.5,1.9c3.4,1.4,6.4,3.7,8.8,6.5
		c2.4,2.8,4.2,6.2,5.2,9.7c0.5,1.8,0.9,3.6,1.1,5.4c0.2,1.8,0.3,3.6,0.2,5.5c-0.3,7.2-2.6,14.4-7.2,19.9c-2.3,2.7-5.1,5-8.3,6.5
		c-3.2,1.5-6.7,2.3-10.3,2.3c-3.5,0-7.1-0.7-10.3-2.3c-3.2-1.6-6-3.9-8.1-6.7C185.3,45.7,183.4,38.6,183.3,31.6"/>
	<path class="st4" d="M231.6,31.6c0-6.8-1.9-13.7-6.1-19.1c-2.1-2.7-4.7-4.9-7.8-6.4c-3-1.5-6.4-2.2-9.8-2.2c-3.4,0-6.8,0.6-9.9,2.1
		c-3.1,1.4-5.7,3.8-7.6,6.5c-2,2.7-3.3,5.9-4,9.2c-0.8,3.3-1,6.6-0.9,9.9c0.3,6.6,2.3,13,6,18.3c1.8,2.6,4.2,5,7,6.7
		c2.8,1.8,6.1,2.7,9.5,2.8c3.4,0.1,6.8-0.6,9.8-2.1c3-1.5,5.7-3.8,7.7-6.4C229.8,45.3,231.6,38.4,231.6,31.6 M232.7,31.6
		c0,7-1.8,14.2-6.1,19.8c-2.1,2.8-4.9,5.2-8.2,6.7c-3.2,1.5-6.7,2.2-10.3,2.3c-3.5,0.2-7.2-0.5-10.5-1.9c-3.4-1.4-6.4-3.7-8.8-6.5
		c-2.4-2.8-4.2-6.2-5.2-9.7c-0.5-1.8-0.9-3.6-1.1-5.4c-0.2-1.8-0.3-3.6-0.2-5.5c0.3-7.2,2.6-14.4,7.2-19.9c2.3-2.7,5.1-5,8.3-6.5
		c3.2-1.5,6.7-2.3,10.3-2.3c3.5,0,7.1,0.7,10.3,2.3c3.2,1.6,6,3.9,8.1,6.7C230.7,17.4,232.7,24.6,232.7,31.6"/>
	<path class="st4" d="M275.9,100.5c0,6.8,1.9,13.7,6.1,19.1c2.1,2.7,4.7,4.9,7.8,6.4c3,1.5,6.4,2.2,9.8,2.2c3.4,0,6.8-0.6,9.9-2.1
		c3.1-1.4,5.7-3.8,7.6-6.5c2-2.7,3.3-5.9,4-9.2c0.8-3.3,1-6.6,0.9-9.9c-0.3-6.6-2.3-13-6-18.3c-1.8-2.6-4.2-5-7-6.7
		c-2.8-1.8-6.1-2.7-9.5-2.8c-3.4-0.1-6.8,0.6-9.9,2.1c-3,1.5-5.7,3.8-7.7,6.4C277.7,86.7,275.9,93.7,275.9,100.5 M274.8,100.5
		c0-7,1.8-14.2,6.1-19.8c2.1-2.8,4.9-5.2,8.2-6.7c3.2-1.5,6.7-2.2,10.3-2.3c3.5-0.2,7.2,0.5,10.5,1.9c3.4,1.4,6.4,3.7,8.8,6.5
		c2.4,2.8,4.2,6.2,5.2,9.7c0.5,1.8,0.9,3.6,1.1,5.4c0.2,1.8,0.3,3.6,0.2,5.5c-0.3,7.2-2.6,14.4-7.2,19.9c-2.3,2.7-5.1,5-8.3,6.5
		c-3.2,1.5-6.7,2.3-10.3,2.3c-3.5,0-7.1-0.7-10.3-2.3c-3.2-1.6-6-3.9-8.1-6.7C276.7,114.6,274.8,107.5,274.8,100.5"/>
	<path class="st4" d="M323,100.5c0-6.8-1.9-13.7-6.1-19.1c-2.1-2.7-4.7-4.9-7.8-6.4c-3-1.5-6.4-2.2-9.8-2.2c-3.4,0-6.8,0.6-9.9,2.1
		c-3.1,1.4-5.7,3.8-7.6,6.5c-2,2.7-3.3,5.9-4,9.2c-0.8,3.3-1,6.6-0.9,9.9c0.3,6.6,2.3,13,6,18.3c1.8,2.6,4.2,5,7,6.7
		c2.8,1.8,6.1,2.7,9.5,2.8c3.4,0.1,6.8-0.6,9.8-2.1c3-1.5,5.7-3.8,7.7-6.4C321.3,114.2,323,107.3,323,100.5 M324.1,100.5
		c0,7-1.8,14.2-6.1,19.8c-2.1,2.8-4.9,5.2-8.2,6.7c-3.2,1.5-6.7,2.2-10.3,2.3c-3.5,0.2-7.2-0.5-10.5-1.9c-3.4-1.4-6.4-3.7-8.8-6.5
		c-2.4-2.8-4.2-6.2-5.2-9.7c-0.5-1.8-0.9-3.6-1.1-5.4c-0.2-1.8-0.3-3.6-0.2-5.5c0.3-7.2,2.6-14.4,7.2-19.9c2.3-2.7,5.1-5,8.3-6.5
		c3.2-1.5,6.7-2.3,10.3-2.3c3.5,0,7.1,0.7,10.3,2.3c3.2,1.6,6,3.9,8.1,6.7C322.2,86.3,324.1,93.5,324.1,100.5"/>
</g>
</svg>
